<?xml version="1.0" encoding="UTF-8"?>
<svg width="20px" height="25px" viewBox="0 0 20 25" version="1.1" xmlns="http://www.w3.org/2000/svg" xmlns:xlink="http://www.w3.org/1999/xlink">
    <!-- Generator: Sketch 52.3 (67297) - http://www.bohemiancoding.com/sketch -->
    <title>Shape 2</title>
    <desc>Created with Sketch.</desc>
    <g id="Inisiator" stroke="none" stroke-width="1" fill="none" fill-rule="evenodd">
        <g id="Home" transform="translate(-125.000000, -281.000000)" fill="#FFFFFF" fill-rule="nonzero">
            <g id="baby-bottle" transform="translate(137.414519, 292.779596) rotate(34.000000) translate(-137.414519, -292.779596) translate(129.914519, 280.279596)">
                <g transform="translate(0.030444, 0.000000)" id="Shape-2">
                    <path d="M11.6337103,10.9375 C12.9112828,10.9375 13.9509517,11.9890625 13.9509517,13.28125 L13.9509517,22.6546875 C13.9509517,23.946875 12.9112828,24.9984375 11.6337103,24.9984375 L2.36474483,24.9984375 C1.08717241,24.9984375 0.0475034483,23.946875 0.0475034483,22.6546875 L0.0475034483,13.28125 C0.0475034483,11.9890625 1.08717241,10.9375 2.36474483,10.9375 L11.6337103,10.9375 Z M11.6337103,6.25 C12.0600828,6.25 12.4061241,6.6 12.4061241,7.03125 L12.4061241,8.59375 C12.4061241,9.025 12.0600828,9.375 11.6337103,9.375 L2.36474483,9.375 C1.93837241,9.375 1.59233103,9.025 1.59233103,8.59375 L1.59233103,7.03125 C1.59233103,6.6 1.93837241,6.25 2.36474483,6.25 L3.13715862,6.25 C3.41522759,4.96875 4.29577931,3.9375 5.4544,3.453125 L5.4544,1.5625 C5.4544,0.703125 6.14957241,-1.13686838e-13 6.99922759,-1.13686838e-13 C7.84888276,-1.13686838e-13 8.54405517,0.703125 8.54405517,1.5625 L8.54405517,3.453125 C9.70267586,3.9375 10.5832276,4.96875 10.8612966,6.25 L11.6337103,6.25 Z"></path>
                </g>
            </g>
        </g>
    </g>
</svg>