<?xml version="1.0" encoding="UTF-8"?>
<svg width="22px" height="21px" viewBox="0 0 22 21" version="1.1" xmlns="http://www.w3.org/2000/svg" xmlns:xlink="http://www.w3.org/1999/xlink">
    <!-- Generator: Sketch 52.3 (67297) - http://www.bohemiancoding.com/sketch -->
    <title>Shape</title>
    <desc>Created with Sketch.</desc>
    <g id="Inisiator" stroke="none" stroke-width="1" fill="none" fill-rule="evenodd">
        <g id="Home" transform="translate(-125.000000, -383.000000)" fill="#FFFFFF" fill-rule="nonzero">
            <g id="house-black-silhouette-without-door" transform="translate(125.000000, 383.000000)">
                <path d="M21.7083388,10.2740738 C22.1068469,9.84308054 22.0683648,9.18249664 21.6224169,8.799 L11.7975896,0.345161074 C11.3516417,-0.0383355705 10.6366775,-0.0303020134 10.2001173,0.363271812 L0.341895765,9.24972483 C-0.0946644951,9.64329866 -0.116091205,10.3030369 0.294456026,10.7226846 L0.541615635,10.9758121 C0.951661238,11.3954597 1.61445603,11.4454933 2.02106189,11.0872248 L2.75781107,10.4384094 L2.75781107,19.9371745 C2.75781107,20.5199597 3.23801303,20.991755 3.8302215,20.991755 L7.67298371,20.991755 C8.26519218,20.991755 8.74539414,20.5199597 8.74539414,19.9371745 L8.74539414,13.2918725 L13.6468795,13.2918725 L13.6468795,19.9371745 C13.6383518,20.5195369 14.0620847,20.9913322 14.6542932,20.9913322 L18.726658,20.9913322 C19.3188664,20.9913322 19.7990684,20.5195369 19.7990684,19.9367517 L19.7990684,10.5721611 C19.7990684,10.5721611 20.0025863,10.7474899 20.2536156,10.9644664 C20.504215,11.1810201 21.0305668,11.0073826 21.4290749,10.5759664 L21.7083388,10.2740738 Z" id="Shape"></path>
            </g>
        </g>
    </g>
</svg>