<?xml version="1.0" encoding="UTF-8"?>
<svg width="25px" height="19px" viewBox="0 0 25 19" version="1.1" xmlns="http://www.w3.org/2000/svg" xmlns:xlink="http://www.w3.org/1999/xlink">
    <!-- Generator: Sketch 52.3 (67297) - http://www.bohemiancoding.com/sketch -->
    <title>Shape 3</title>
    <desc>Created with Sketch.</desc>
    <g id="Inisiator" stroke="none" stroke-width="1" fill="none" fill-rule="evenodd">
        <g id="Home" transform="translate(-211.000000, -285.000000)" fill="#FFFFFF" fill-rule="nonzero">
            <g id="open-book" transform="translate(211.018356, 285.000000)">
                <path d="M1.61240257,1.01091055 C4.32313949,-0.336427342 7.53218594,-0.336892633 10.2431617,1.00951461 L11.8581907,1.82359427 L11.8581907,18.9927875 L10.8025959,18.4606926 C7.74039193,16.9390919 4.11517231,16.9395572 1.05320715,18.4618559 C0.829481174,18.5746963 0.56158313,18.5656225 0.346452873,18.4378918 C0.131322616,18.3103938 4.11192394e-14,18.082619 4.11192394e-14,17.837162 L4.11192394e-14,2.25145718 C-0.000716308068,1.98855066 0.149946516,1.74728157 0.38990868,1.62699597 L1.61240257,1.01091055 Z M24.5487279,1.62699597 C24.7889288,1.74728157 24.9395916,1.98855066 24.9388753,2.25145718 L24.9388753,17.837162 C24.9388753,18.0830844 24.8070752,18.3110918 24.5912286,18.4385898 C24.375382,18.5660879 24.1070064,18.5744637 23.8832805,18.4606926 C20.8208378,16.9390919 17.1958569,16.9395572 14.1338917,18.4618559 L13.0806846,18.9927875 L13.0806846,1.82359427 L14.6930872,1.01091055 C17.4038241,-0.336427342 20.6128705,-0.336892633 23.3238463,1.00951461 L24.5487279,1.62699597 Z" id="Shape-3"></path>
            </g>
        </g>
    </g>
</svg>