<?xml version="1.0" encoding="UTF-8"?>
<svg width="22px" height="21px" viewBox="0 0 22 21" version="1.1" xmlns="http://www.w3.org/2000/svg" xmlns:xlink="http://www.w3.org/1999/xlink">
    <!-- Generator: Sketch 52.3 (67297) - http://www.bohemiancoding.com/sketch -->
    <title>Shape</title>
    <desc>Created with Sketch.</desc>
    <g id="Inisiator" stroke="none" stroke-width="1" fill="none" fill-rule="evenodd">
        <g id="Home" transform="translate(-38.000000, -383.000000)" fill="#FFFFFF" fill-rule="nonzero">
            <g id="pc-search" transform="translate(38.000000, 383.000000)">
                <path d="M20.1907182,0.00353880266 L1.79646764,0.00353880266 C0.805824635,0.00353880266 0,0.820862528 0,1.82481153 L0,14.4805942 C0,15.4845432 0.805824635,16.3019135 1.79646764,16.3019135 L7.96303549,16.3019135 L7.96303549,18.7436408 L6.9899833,18.7436408 C6.37977035,18.7436408 5.88529854,19.2452661 5.88529854,19.8635787 C5.88529854,20.4817982 6.37977035,20.9834701 6.9899833,20.9834701 L14.9986722,20.9834701 C15.6088852,20.9834701 16.1033111,20.4818448 16.1033111,19.8635787 C16.1033111,19.2453126 15.6088852,18.7436408 14.9986722,18.7436408 L14.02562,18.7436408 L14.02562,16.3019135 L20.1907182,16.3019135 C21.1813612,16.3019135 21.9871858,15.4845432 21.9871858,14.4805942 L21.9871858,1.82481153 C21.9871858,0.820862528 21.1813612,0.00353880266 20.1907182,0.00353880266 Z M17.5668392,15.1820222 C17.2899332,15.1820222 17.0663048,14.9552594 17.0663048,14.6752749 C17.0663048,14.394592 17.2899791,14.1678293 17.5668392,14.1678293 C17.8430104,14.1678293 18.0666388,14.394592 18.0666388,14.6752749 C18.0666388,14.9552594 17.8430104,15.1820222 17.5668392,15.1820222 Z M19.7761169,15.3037384 C19.4330731,15.3037384 19.1554781,15.0222639 19.1554781,14.6752749 C19.1554781,14.3274479 19.4330731,14.04602 19.7761169,14.04602 C20.1184259,14.04602 20.3960668,14.3274479 20.3960668,14.6752749 C20.3960668,15.0222639 20.1184259,15.3037384 19.7761169,15.3037384 Z M19.1736299,12.7152905 L2.80167015,12.7152905 L2.80167015,2.75343644 C2.80167015,2.59801956 2.926577,2.47138803 3.07991665,2.47138803 L18.8953834,2.47138803 C19.0487626,2.47138803 19.1735904,2.59801956 19.1735904,2.75343644 L19.1736299,12.7152905 Z" id="Shape"></path>
            </g>
        </g>
    </g>
</svg>