<?xml version="1.0" encoding="UTF-8"?>
<svg width="24px" height="22px" viewBox="0 0 24 22" version="1.1" xmlns="http://www.w3.org/2000/svg" xmlns:xlink="http://www.w3.org/1999/xlink">
    <!-- Generator: Sketch 52.3 (67297) - http://www.bohemiancoding.com/sketch -->
    <title>Shape</title>
    <desc>Created with Sketch.</desc>
    <g id="Inisiator" stroke="none" stroke-width="1" fill="none" fill-rule="evenodd">
        <g id="Home" transform="translate(-297.000000, -284.000000)" fill="#FFFFFF" fill-rule="nonzero">
            <g id="t-shirt-black-silhouette" transform="translate(296.563936, 284.000000)">
                <path d="M17.2930233,21.4196757 L7.20755814,21.4196757 C6.56569767,21.4196757 6.04476744,20.8869189 6.04476744,20.2304865 L6.04476744,9.62172973 L5.39476744,10.2864865 C5.17674419,10.5100541 4.88081395,10.6349189 4.57209302,10.6349189 C4.57209302,10.6349189 4.57209302,10.6349189 4.57209302,10.6349189 C4.26395349,10.6349189 3.96744186,10.5094595 3.7494186,10.2864865 L0.920930233,7.39140541 C0.46744186,6.92702703 0.46744186,6.17486486 0.920930233,5.70989189 L6.09302326,0.418594595 C6.34534884,0.159945946 6.70988372,0.0344864865 7.06104651,0.0796756757 C7.10930233,0.0737297297 7.15813953,0.0701621622 7.20755814,0.0701621622 L8.64534884,0.0701621622 C9.03953488,0.0701621622 9.40755814,0.274702703 9.62151163,0.613027027 C10.0790698,1.33605405 11.1110465,1.80281081 12.2505814,1.80281081 C13.3901163,1.80281081 14.4226744,1.33605405 14.8802326,0.613027027 C15.094186,0.274702703 15.4616279,0.0701621622 15.8563953,0.0701621622 L17.294186,0.0701621622 C17.3436047,0.0701621622 17.3924419,0.0731351351 17.4406977,0.0796756757 C17.4883721,0.0737297297 17.5366279,0.0701621622 17.5854651,0.0701621622 C17.5860465,0.0701621622 17.5860465,0.0701621622 17.5860465,0.0701621622 C17.894186,0.0701621622 18.1901163,0.195621622 18.4087209,0.418594595 L23.5796512,5.7092973 C24.0331395,6.17367568 24.0331395,6.92583784 23.5796512,7.39081081 L20.7517442,10.2864865 C20.5337209,10.5094595 20.2377907,10.6349189 19.9296512,10.6349189 C19.9290698,10.6349189 19.9290698,10.6349189 19.9290698,10.6349189 C19.6209302,10.6355135 19.325,10.5100541 19.1069767,10.2870811 L18.4563953,9.62113514 L18.4563953,20.2304865 C18.455814,20.8875135 17.9354651,21.4196757 17.2930233,21.4196757 Z M17.5860465,1.25935135 L22.7563953,6.55064865 L19.9284884,9.44632432 L17.2930233,6.75043243 L17.2930233,20.2304865 L7.20755814,20.2304865 L7.20755814,6.74983784 L4.57267442,9.44572973 L1.74418605,6.55064865 L6.91511628,1.25935135 L7.20755814,1.55843243 L7.20755814,1.25935135 L8.64534884,1.25935135 C9.29360465,2.28383784 10.6622093,2.992 12.2505814,2.992 C13.8395349,2.992 15.2081395,2.28383784 15.8563953,1.25935135 L17.294186,1.25935135 L17.294186,1.55843243 L17.5860465,1.25935135 Z" id="Shape"></path>
            </g>
        </g>
    </g>
</svg>